{
    "data": [
        {
            "id": "10213170117986015_10200170261477727",
            "from": {
                "name": "Matevž Pearce",
                "id": "10213170117986015"
            },
            "message": "Hvala vsem, the teen days are over!",
            "actions": [
                {
                    "name": "Comment",
                    "link": "https://www.facebook.com/10213170117986015/posts/10200170261477727"
                },
                {
                    "name": "Like",
                    "link": "https://www.facebook.com/10213170117986015/posts/10200170261477727"
                },
                {
                    "name": "Share",
                    "link": "https://www.facebook.com/10213170117986015/posts/10200170261477727"
                }
            ],
            "privacy": {
                "value": "EVERYONE",
                "description": "Public",
                "friends": "",
                "allow": "",
                "deny": ""
            },
            "type": "status",
            "status_type": "mobile_status_update",
            "created_time": "2013-01-03T07:22:50+0000",
            "updated_time": "2013-01-03T10:38:42+0000",
            "is_hidden": false,
            "subscribed": true,
            "is_expired": false,
            "likes": {
                "data": [
                    {
                        "id": "10152897710714511",
                        "name": "Tina Škrlj"
                    },
                    {
                        "id": "10152887100829709",
                        "name": "Erica Pelan"
                    },
                    {
                        "id": "10202250673854715",
                        "name": "Nina Mohorčič"
                    },
                    {
                        "id": "10204481954942659",
                        "name": "Nina Anin"
                    },
                    {
                        "id": "10204739777151548",
                        "name": "Borut Olenik"
                    }
                ],
                "paging": {
                    "cursors": {
                        "before": "MTAxNTI4OTc3MTA3MTQ1MTEZD",
                        "after": "MTAyMDQ3Mzk3NzcxNTE1NDgZD"
                    }
                }
            },
            "comments": {
                "data": [
                    {
                        "created_time": "2013-01-03T10:37:17+0000",
                        "from": {
                            "name": "Tomaž Vidmar",
                            "id": "10204933296952687"
                        },
                        "message": "Teen? What, so you`re like 20 now? lol",
                        "can_remove": false,
                        "like_count": 0,
                        "user_likes": false,
                        "id": "10200170261477727_5884106"
                    },
                    {
                        "created_time": "2013-01-03T10:38:42+0000",
                        "from": {
                            "name": "Tomaž Vidmar",
                            "id": "10204933296952687"
                        },
                        "message": ":poop:",
                        "can_remove": false,
                        "like_count": 0,
                        "user_likes": false,
                        "id": "10200170261477727_5884108"
                    }
                ],
                "paging": {
                    "cursors": {
                        "before": "WTI5dGJXVnVkRjlqZAFhKemIzSTZANVEF5TURBeE56QTVPRFE0TlRVNE1URTZAOVGc0TkRFd05nPT0ZD",
                        "after": "WTI5dGJXVnVkRjlqZAFhKemIzSTZANVEF5TURBeE56QTVPRGN3T1RVNE5qYzZAOVGc0TkRFd09BPT0ZD"
                    }
                }
            }
        },
        {
            "id": "10213170117986015_224224767710014",
            "from": {
                "name": "Matevž Pearce",
                "id": "10213170117986015"
            },
            "message": "moomba blasta",
            "picture": "https://external.xx.fbcdn.net/safe_image.php?w=130&h=130&url=http%3A%2F%2Fi3.ytimg.com%2Fvi%2FR_Z90-5kU0s%2Fmqdefault.jpg&cfs=1&_nc_hash=AQC65kFgP3-ZsMi_",
            "link": "http://www.youtube.com/watch?v=R_Z90-5kU0s",
            "source": "https://www.youtube.com/embed/R_Z90-5kU0s?autoplay=1",
            "name": "Dillon Francis - I Love You",
            "caption": "youtube.com",
            "description": "http://www.makesomenoise.fr http://www.facebook.com/pages/MKSMNS-One-Day-One-Sound-wwwmakesomenoisefr/115759541820467",
            "icon": "https://www.facebook.com/images/icons/post.gif",
            "actions": [
                {
                    "name": "Comment",
                    "link": "https://www.facebook.com/10213170117986015/posts/224224767710014"
                },
                {
                    "name": "Like",
                    "link": "https://www.facebook.com/10213170117986015/posts/224224767710014"
                },
                {
                    "name": "Share",
                    "link": "https://www.facebook.com/10213170117986015/posts/224224767710014"
                }
            ],
            "privacy": {
                "value": "EVERYONE",
                "description": "Public",
                "friends": "",
                "allow": "",
                "deny": ""
            },
            "type": "video",
            "status_type": "shared_story",
            "created_time": "2012-11-12T16:22:46+0000",
            "updated_time": "2012-11-12T18:39:13+0000",
            "is_hidden": false,
            "subscribed": true,
            "is_expired": false,
            "comments": {
                "data": [
                    {
                        "created_time": "2012-11-12T16:32:54+0000",
                        "from": {
                            "name": "Lana Marinković",
                            "id": "10202852804032929"
                        },
                        "message": "A ma ti si se ziv?? :)",
                        "can_remove": false,
                        "like_count": 0,
                        "user_likes": false,
                        "id": "224224767710014_7765554"
                    },
                    {
                        "created_time": "2012-11-12T16:42:09+0000",
                        "from": {
                            "name": "Matevž Pearce",
                            "id": "10213170117986015"
                        },
                        "message": "ne, ti? :)",
                        "can_remove": false,
                        "like_count": 0,
                        "user_likes": false,
                        "id": "224224767710014_7765572"
                    },
                    {
                        "created_time": "2012-11-12T18:39:13+0000",
                        "from": {
                            "name": "Lana Marinković",
                            "id": "10202852804032929"
                        },
                        "message": "Tudi ne... ;)",
                        "can_remove": false,
                        "like_count": 0,
                        "user_likes": false,
                        "id": "224224767710014_7765863"
                    }
                ],
                "paging": {
                    "cursors": {
                        "before": "WTI5dGJXVnVkRjlqZAFhKemIzSTZANakkwTWpJNE1qUTBNemMyTXpNek9qYzNOalUxTlRRPQZDZD",
                        "after": "WTI5dGJXVnVkRjlqZAFhKemIzSTZANakkwTWpjeU56ZAzNOekExTWpFeU9qYzNOalU0TmpNPQZDZD"
                    }
                }
            }
        },
        {
            "id": "10213170117986015_4182176751174",
            "from": {
                "name": "Matevž Pearce",
                "id": "10213170117986015"
            },
            "story": "Matevž Pearce added a life event: Started School at Gimnazija Postojna — in Postojna.",
            "story_tags": {
                "0": [
                    {
                        "id": "10213170117986015",
                        "name": "Matevž Pearce",
                        "type": "user",
                        "offset": 0,
                        "length": 13
                    }
                ],
                "76": [
                    {
                        "id": "108156282546253",
                        "name": "Postojna",
                        "type": "page",
                        "offset": 76,
                        "length": 8
                    }
                ]
            },
            "link": "https://www.facebook.com/10213170117986015/timeline/story?ut=32&wstart=-2051193600&wend=2147483647&hash=4182176751174&pagefilter=3&ustart=1",
            "name": "Started School at Gimnazija Postojna",
            "caption": "Started School at Gimnazija Postojna",
            "icon": "https://www.facebook.com/images/icons/post.gif",
            "actions": [
                {
                    "name": "Comment",
                    "link": "https://www.facebook.com/10213170117986015/posts/4182176751174"
                },
                {
                    "name": "Like",
                    "link": "https://www.facebook.com/10213170117986015/posts/4182176751174"
                },
                {
                    "name": "Share",
                    "link": "https://www.facebook.com/10213170117986015/posts/4182176751174"
                }
            ],
            "privacy": {
                "value": "EVERYONE",
                "description": "Public",
                "friends": "",
                "allow": "",
                "deny": ""
            },
            "place": {
                "id": "108156282546253",
                "name": "Postojna",
                "location": {
                    "city": "Postojna",
                    "country": "Slovenia",
                    "latitude": 45.766666666667,
                    "longitude": 14.216666666667
                }
            },
            "type": "link",
            "object_id": "4182176751174",
            "created_time": "2012-07-02T21:59:39+0000",
            "updated_time": "2012-07-02T21:59:39+0000",
            "is_hidden": false,
            "subscribed": true,
            "is_expired": false
        },
        {
            "id": "10213170117986015_384096214958201",
            "from": {
                "name": "Matevž Pearce",
                "id": "10213170117986015"
            },
            "message": "live 1

https: //www.youtube.com/watch?v=eOofWzI3flA", "picture": "https://external.xx.fbcdn.net/safe_image.php?d=AQAq2xSL3CbQU9s4&w=130&h=130&url=http%3A%2F%2Fi2.ytimg.com%2Fvi%2FeOofWzI3flA%2Fhqdefault.jpg&cfs=1&_nc_hash=AQDHV7boaB6j-cKp",
            "link": "http://www.youtube.com/watch?v=eOofWzI3flA",
            "source": "https://www.youtube.com/embed/eOofWzI3flA?autoplay=1",
            "name": "Skrillex - Rock n Roll (Will Take You to the Mountain)",
            "caption": "youtube.com",
            "description": "Here's a video shot from the last eight months of touring I've done... Took a long time to edit this down and pick the right shots since there were too many ...",
            "icon": "https://www.facebook.com/images/icons/post.gif",
            "actions": [
                {
                    "name": "Comment",
                    "link": "https://www.facebook.com/10213170117986015/posts/384096214958201"
                },
                {
                    "name": "Like",
                    "link": "https://www.facebook.com/10213170117986015/posts/384096214958201"
                },
                {
                    "name": "Share",
                    "link": "https://www.facebook.com/10213170117986015/posts/384096214958201"
                }
            ],
            "privacy": {
                "value": "EVERYONE",
                "description": "Public",
                "friends": "",
                "allow": "",
                "deny": ""
            },
            "type": "video",
            "status_type": "shared_story",
            "created_time": "2012-04-10T15:48:59+0000",
            "updated_time": "2012-04-10T15:48:59+0000",
            "is_hidden": false,
            "subscribed": true,
            "is_expired": false
        },
        {
            "id": "10213170117986015_129668757163601",
            "from": {
                "name": "Matevž Pearce",
                "id": "10213170117986015"
            },
            "message": "dubstep live 2
https: //www.youtube.com/watch?v=bTTTSR6zrc0
",
      "picture": "https://external.xx.fbcdn.net/safe_image.php?d=AQADOXRPoYpfUK2X&w=130&h=130&url=http%3A%2F%2Fi3.ytimg.com%2Fvi%2FbTTTSR6zrc0%2Fhqdefault.jpg&cfs=1&_nc_hash=AQD5vLwMhuNgATRV",
            "link": "http://www.youtube.com/watch?v=bTTTSR6zrc0",
            "source": "https://www.youtube.com/embed/bTTTSR6zrc0?autoplay=1",
            "name": "Modestep - Show Me A Sign (US Tour Live)",
            "caption": "youtube.com",
            "description": "Music video by Modestep performing Show Me A Sign. (C) 2012 Polydor Ltd. (UK)",
            "icon": "https://www.facebook.com/images/icons/post.gif",
            "actions": [
                {
                    "name": "Comment",
                    "link": "https://www.facebook.com/10213170117986015/posts/129668757163601"
                },
                {
                    "name": "Like",
                    "link": "https://www.facebook.com/10213170117986015/posts/129668757163601"
                },
                {
                    "name": "Share",
                    "link": "https://www.facebook.com/10213170117986015/posts/129668757163601"
                }
            ],
            "privacy": {
                "value": "EVERYONE",
                "description": "Public",
                "friends": "",
                "allow": "",
                "deny": ""
            },
            "type": "video",
            "status_type": "shared_story",
            "created_time": "2012-04-10T15:48:36+0000",
            "updated_time": "2012-04-10T15:48:36+0000",
            "is_hidden": false,
            "subscribed": true,
            "is_expired": false
        },
        {
            "id": "10213170117986015_114877505248393",
            "from": {
                "name": "Matevž Pearce",
                "id": "10213170117986015"
            },
            "message": "Dubstep is rising !!! :)",
            "picture": "https://external.xx.fbcdn.net/safe_image.php?d=AQDK9Uc1-etDWyTa&w=130&h=130&url=http%3A%2F%2Fi.ytimg.com%2Fvi%2FqNhPYj-5rIY%2F0.jpg&cfs=1&_nc_hash=AQBaAcqROn7nLXK5",
            "link": "http://www.youtube.com/watch?v=qNhPYj-5rIY",
            "source": "https://www.youtube.com/embed/qNhPYj-5rIY?autoplay=1",
            "name": "Katy B - Katy On A Mission - Official Music Video",
            "caption": "gdata.youtube.com",
            "description": "Add Katy B on Facebook - http://www.facebook.com/katyb and on Twitter - http://www.twitter.com/katybmusic    Click To Buy Katy On A Mission! http://bit.ly/katyonamission    Join the Katy B Mailing List - http://bit.ly/katybmailinglist    Rinse presents Katy B's first single 'Katy On A Mission'    Wr",
            "icon": "https://www.facebook.com/images/icons/post.gif",
            "actions": [
                {
                    "name": "Comment",
                    "link": "https://www.facebook.com/10213170117986015/posts/114877505248393"
                },
                {
                    "name": "Like",
                    "link": "https://www.facebook.com/10213170117986015/posts/114877505248393"
                },
                {
                    "name": "Share",
                    "link": "https://www.facebook.com/10213170117986015/posts/114877505248393"
                }
            ],
            "privacy": {
                "value": "EVERYONE",
                "description": "Public",
                "friends": "",
                "allow": "",
                "deny": ""
            },
            "type": "video",
            "status_type": "shared_story",
            "created_time": "2010-12-13T20:24:24+0000",
            "updated_time": "2010-12-13T20:24:24+0000",
            "is_hidden": false,
            "subscribed": true,
            "is_expired": false
        },
        {
            "id": "10213170117986015_148797581837463",
            "from": {
                "name": "Matevž Pearce",
                "id": "10213170117986015"
            },
            "message": "House music is not dead yet! :)",
            "picture": "https://external.xx.fbcdn.net/safe_image.php?d=AQA5q7RU2jbVORp_&w=130&h=130&url=http%3A%2F%2Fi.ytimg.com%2Fvi%2Fuu_zwdmz0hE%2F0.jpg&cfs=1&_nc_hash=AQC8Ja8cVU03KBK1",
            "link": "http://www.youtube.com/watch?v=uu_zwdmz0hE",
            "source": "https://www.youtube.com/embed/uu_zwdmz0hE?autoplay=1",
            "name": "Duck Sauce - Barbra Streisand Official Video",
            "caption": "gdata.youtube.com",
            "description": "OUT NOW on iTunes: http://bit.ly/DuckSauceBarbra_iTunes Spinnin' Records is proud to bring you DUCK SAUCE - Barbra Streisand [Official video]. Brilliant new record by Armand van Helden and A-Trak. Enjoy it!",
            "icon": "https://www.facebook.com/images/icons/post.gif",
            "actions": [
                {
                    "name": "Comment",
                    "link": "https://www.facebook.com/10213170117986015/posts/148797581837463"
                },
                {
                    "name": "Like",
                    "link": "https://www.facebook.com/10213170117986015/posts/148797581837463"
                },
                {
                    "name": "Share",
                    "link": "https://www.facebook.com/10213170117986015/posts/148797581837463"
                }
            ],
            "privacy": {
                "value": "EVERYONE",
                "description": "Public",
                "friends": "",
                "allow": "",
                "deny": ""
            },
            "type": "video",
            "status_type": "shared_story",
            "created_time": "2010-12-13T20:16:42+0000",
            "updated_time": "2010-12-13T20:16:42+0000",
            "is_hidden": false,
            "subscribed": true,
            "is_expired": false
        },
        {
            "id": "10213170117986015_142300989118102",
            "from": {
                "name": "Matevž Pearce",
                "id": "10213170117986015"
            },
            "message": "http://www.youtube.com/watch?v=3vfLvZCdT9g",
            "picture": "https://external.xx.fbcdn.net/safe_image.php?d=AQAyuD0KeAH6eSaw&w=130&h=130&url=http%3A%2F%2Fi.ytimg.com%2Fvi%2F3vfLvZCdT9g%2F0.jpg&cfs=1&_nc_hash=AQB22f9GgTlhkAtC",
            "link": "http://www.youtube.com/watch?v=3vfLvZCdT9g",
            "source": "https://www.youtube.com/embed/3vfLvZCdT9g?autoplay=1",
            "name": "Robyn 'With Every Heartbeat'",
            "caption": "gdata.youtube.com",
            "description": "With Every Heartbeat - Robyns amazing number 1 single",
            "icon": "https://www.facebook.com/images/icons/post.gif",
            "actions": [
                {
                    "name": "Comment",
                    "link": "https://www.facebook.com/10213170117986015/posts/142300989118102"
                },
                {
                    "name": "Like",
                    "link": "https://www.facebook.com/10213170117986015/posts/142300989118102"
                },
                {
                    "name": "Share",
                    "link": "https://www.facebook.com/10213170117986015/posts/142300989118102"
                }
            ],
            "privacy": {
                "value": "EVERYONE",
                "description": "Public",
                "friends": "",
                "allow": "",
                "deny": ""
            },
            "type": "video",
            "status_type": "shared_story",
            "created_time": "2010-07-09T22:00:25+0000",
            "updated_time": "2010-12-13T17:48:54+0000",
            "is_hidden": false,
            "subscribed": true,
            "is_expired": false,
            "comments": {
                "data": [
                    {
                        "created_time": "2010-12-11T23:55:27+0000",
                        "from": {
                            "name": "Neza Lipanje",
                            "id": "10204786060748773"
                        },
                        "message": "ma tebi je ta Robyn dobraa?!",
                        "can_remove": false,
                        "like_count": 0,
                        "user_likes": false,
                        "id": "142300989118102_2384641"
                    },
                    {
                        "created_time": "2010-12-13T17:42:28+0000",
                        "from": {
                            "name": "Matevž Pearce",
                            "id": "10213170117986015"
                        },
                        "message": "ja, 2dni sm mal poslušu",
                        "can_remove": false,
                        "like_count": 0,
                        "user_likes": false,
                        "id": "142300989118102_2397105"
                    },
                    {
                        "created_time": "2010-12-13T17:48:54+0000",
                        "from": {
                            "name": "Matevž Pearce",
                            "id": "10213170117986015"
                        },
                        "message": "skandinavci znajo delat pop",
                        "can_remove": false,
                        "like_count": 0,
                        "user_likes": false,
                        "id": "142300989118102_2397140"
                    }
                ],
                "paging": {
                    "cursors": {
                        "before": "WTI5dGJXVnVkRjlqZAFhKemIzSTZANVGcwTlRZANU1ESTBPRGt4TWprNE9qSXpPRFEyTkRFPQZDZD",
                        "after": "WTI5dGJXVnVkRjlqZAFhKemIzSTZANVGcxTURBMk5UQTBPRFEzTlRVd09qSXpPVGN4TkRBPQZDZD"
                    }
                }
            }
        },
        {
            "id": "10213170117986015_109345732450242",
            "from": {
                "name": "Matevž Pearce",
                "id": "10213170117986015"
            },
            "message": "http://www.dailymotion.com/video/x9ec4v_royksopp-feat-robyn-the-girl-and-th_music",
            "picture": "https://external.xx.fbcdn.net/safe_image.php?d=AQCJO4c1IkQGYInX&w=130&h=130&url=http%3A%2F%2Fwww.dailymotion.com%2Fthumbnail%2F160x120%2Fvideo%2Fx9ec4v_royksopp-feat-robyn-the-girl-and-th_music&cfs=1&_nc_hash=AQAbjCzT_ofNDiB5",
            "link": "http://www.dailymotion.com/video/x9ec4v_royksopp-feat-robyn-the-girl-and-th_music",
            "source": "http://www.dailymotion.com/embed/video/x9ec4v?autoplay=1",
            "name": "Röyksopp Feat Robyn - The Girl And The Robot / NEW - on Dailymotion",
            "caption": "dailymotion.com",
            "description": "Röyksopp Feat Robyn - The Girl And The Robot / NEW",
            "icon": "https://www.facebook.com/images/icons/post.gif",
            "actions": [
                {
                    "name": "Comment",
                    "link": "https://www.facebook.com/10213170117986015/posts/109345732450242"
                },
                {
                    "name": "Like",
                    "link": "https://www.facebook.com/10213170117986015/posts/109345732450242"
                },
                {
                    "name": "Share",
                    "link": "https://www.facebook.com/10213170117986015/posts/109345732450242"
                }
            ],
            "privacy": {
                "value": "EVERYONE",
                "description": "Public",
                "friends": "",
                "allow": "",
                "deny": ""
            },
            "type": "video",
            "status_type": "shared_story",
            "created_time": "2010-07-09T22:00:00+0000",
            "updated_time": "2010-07-09T22:00:00+0000",
            "is_hidden": false,
            "subscribed": true,
            "is_expired": false
        },
        {
            "id": "10213170117986015_133980289968112",
            "from": {
                "name": "Matevž Pearce",
                "id": "10213170117986015"
            },
            "message": "http://www.youtube.com/watch?v=XRnPQ7vjv2Q",
            "picture": "https://external.xx.fbcdn.net/safe_image.php?d=AQAhmXCDnCjxfZ7p&w=130&h=130&url=http%3A%2F%2Fi.ytimg.com%2Fvi%2FXRnPQ7vjv2Q%2F0.jpg&cfs=1&_nc_hash=AQCs9ehERKVl7nSu",
            "link": "http://www.youtube.com/watch?v=XRnPQ7vjv2Q",
            "name": "[ FATBOY SLIM ] - Birds Of Prey",
            "caption": "gdata.youtube.com",
            "description": "Bird of prey,
Bird of prey,
Flying high,
Flying high.

In the summer sky,
Flying high.

Gently passing by,
Flying high.

Take me on your flight.
Flying high.",
      "icon": "https://www.facebook.com/images/icons/post.gif",
            "actions": [
                {
                    "name": "Comment",
                    "link": "https://www.facebook.com/10213170117986015/posts/133980289968112"
                },
                {
                    "name": "Like",
                    "link": "https://www.facebook.com/10213170117986015/posts/133980289968112"
                },
                {
                    "name": "Share",
                    "link": "https://www.facebook.com/10213170117986015/posts/133980289968112"
                }
            ],
            "privacy": {
                "value": "EVERYONE",
                "description": "Public",
                "friends": "",
                "allow": "",
                "deny": ""
            },
            "type": "link",
            "status_type": "shared_story",
            "created_time": "2010-07-09T21:04:41+0000",
            "updated_time": "2010-07-09T21:04:41+0000",
            "is_hidden": false,
            "subscribed": true,
            "is_expired": false
        },
        {
            "id": "10213170117986015_100154196699879",
            "from": {
                "name": "Matevž Pearce",
                "id": "10213170117986015"
            },
            "message": "MUST SEE",
            "picture": "https://external.xx.fbcdn.net/safe_image.php?d=AQBaF2W9qmB3hGM9&w=130&h=130&url=http%3A%2F%2Fats.vimeo.com%2F610%2F655%2F61065539_200.jpg&cfs=1&_nc_hash=AQAWeLW5snWv6oBm",
            "link": "http://vimeo.com/11219730",
            "source": "https://player.vimeo.com/video/11219730?autoplay=1",
            "name": "M.I.A, Born Free",
            "caption": "vimeo.com",
            "description": "www.miauk.com www.neetrecordings.com Director : Romain Gavras Director of Photography : André Chemetoff Producer : Mourad Belkeddar Production company : www.elnino.tv Executive Production : Gaetan Rousseau / Paradoxal Special thanks to Lana & Melissa from The Director's Bureau",
            "icon": "https://www.facebook.com/images/icons/post.gif",
            "actions": [
                {
                    "name": "Comment",
                    "link": "https://www.facebook.com/10213170117986015/posts/100154196699879"
                },
                {
                    "name": "Like",
                    "link": "https://www.facebook.com/10213170117986015/posts/100154196699879"
                },
                {
                    "name": "Share",
                    "link": "https://www.facebook.com/10213170117986015/posts/100154196699879"
                }
            ],
            "privacy": {
                "value": "EVERYONE",
                "description": "Public",
                "friends": "",
                "allow": "",
                "deny": ""
            },
            "type": "video",
            "status_type": "shared_story",
            "created_time": "2010-05-29T17:58:08+0000",
            "updated_time": "2010-05-30T15:04:31+0000",
            "is_hidden": false,
            "subscribed": true,
            "is_expired": false,
            "likes": {
                "data": [
                    {
                        "id": "10204481954942659",
                        "name": "Nina Anin"
                    },
                    {
                        "id": "10152897710714511",
                        "name": "Tina Škrlj"
                    },
                    {
                        "id": "10213170117986015",
                        "name": "Matevž Pearce"
                    }
                ],
                "paging": {
                    "cursors": {
                        "before": "MTAyMDQ0ODE5NTQ5NDI2NTkZD",
                        "after": "MTAyMTMxNzAxMTc5ODYwMTUZD"
                    }
                }
            },
            "comments": {
                "data": [
                    {
                        "created_time": "2010-05-29T19:35:48+0000",
                        "from": {
                            "name": "Matevž Pearce",
                            "id": "10213170117986015"
                        },
                        "message": "banned from youtube!",
                        "can_remove": false,
                        "like_count": 0,
                        "user_likes": false,
                        "id": "100154196699879_963"
                    },
                    {
                        "created_time": "2010-05-30T09:23:35+0000",
                        "from": {
                            "name": "Tina Škrlj",
                            "id": "10152897710714511"
                        },
                        "message": "Svašta! Huda muzika drgač!",
                        "can_remove": false,
                        "like_count": 0,
                        "user_likes": false,
                        "id": "100154196699879_3318"
                    },
                    {
                        "created_time": "2010-05-30T15:04:31+0000",
                        "from": {
                            "name": "Matevž Pearce",
                            "id": "10213170117986015"
                        },
                        "message": "muzika + video = crazy shit",
                        "can_remove": false,
                        "like_count": 1,
                        "user_likes": false,
                        "id": "100154196699879_4896"
                    }
                ],
                "paging": {
                    "cursors": {
                        "before": "WTI5dGJXVnVkRjlqZAFhKemIzSTZANVEF3TVRjM01UVTJOamszTlRnek9qazJNdz09",
                        "after": "WTI5dGJXVnVkRjlqZAFhKemIzSTZANVEF3TXprd09Ua3dNREE1TlRNek9qUTRPVFk9"
                    }
                }
            }
        },
        {
            "id": "10213170117986015_264670392215",
            "from": {
                "name": "Matevž Pearce",
                "id": "10213170117986015"
            },
            "message": "Najlepša hvala, lepo vas je bilo prebrat!",
            "actions": [
                {
                    "name": "Comment",
                    "link": "https://www.facebook.com/10213170117986015/posts/264670392215"
                },
                {
                    "name": "Like",
                    "link": "https://www.facebook.com/10213170117986015/posts/264670392215"
                },
                {
                    "name": "Share",
                    "link": "https://www.facebook.com/10213170117986015/posts/264670392215"
                }
            ],
            "privacy": {
                "value": "EVERYONE",
                "description": "Public",
                "friends": "",
                "allow": "",
                "deny": ""
            },
            "type": "status",
            "status_type": "mobile_status_update",
            "created_time": "2010-01-06T12:00:37+0000",
            "updated_time": "2010-01-06T12:00:37+0000",
            "is_hidden": false,
            "subscribed": true,
            "is_expired": false
        },
        {
            "id": "10213170117986015_1305372952877",
            "from": {
                "name": "Matevž Pearce",
                "id": "10213170117986015"
            },
            "story": "Matevž Pearce is playing FarmVille.",
            "story_tags": {
                "0": [
                    {
                        "id": "10213170117986015",
                        "name": "Matevž Pearce",
                        "type": "user",
                        "offset": 0,
                        "length": 13
                    }
                ],
                "25": [
                    {
                        "id": "102452128776",
                        "name": "FarmVille",
                        "type": "application",
                        "offset": 25,
                        "length": 9
                    }
                ]
            },
            "privacy": {
                "value": "",
                "description": "",
                "friends": "",
                "allow": "",
                "deny": ""
            },
            "type": "status",
            "application": {
                "category": "Games",
                "link": "https://apps.facebook.com/onthefarm/",
                "name": "FarmVille",
                "namespace": "onthefarm",
                "id": "102452128776"
            },
            "created_time": "2009-11-26T12:58:51+0000",
            "updated_time": "2009-11-26T12:58:51+0000",
            "is_hidden": false,
            "is_expired": false
        },
        {
            "id": "10213170117986015_121751114397",
            "from": {
                "name": "Matevž Pearce",
                "id": "10213170117986015"
            },
            "message": "http://www.youtube.com/watch?v=on1q9O-f16Y",
            "picture": "https://external.xx.fbcdn.net/safe_image.php?d=AQAaeaquYmwRGcVt&w=130&h=130&url=http%3A%2F%2Fi.ytimg.com%2Fvi%2Fon1q9O-f16Y%2F2.jpg&cfs=1&_nc_hash=AQCXAgmIFXv8NeCA",
            "link": "http://www.youtube.com/watch?v=on1q9O-f16Y",
            "source": "https://www.youtube.com/embed/on1q9O-f16Y?autoplay=1",
            "name": "purasevic pink skandal",
            "caption": "youtube.com",
            "description": "Pop ikona Purasevic, tokom gostovanja povodom nove pjesme i spota (http://www.youtube.com/watch?v=5woH9wtvoso) u jutarnjem programu TV Pink, prozivao kolege muzicare, svadjao se sa voditeljkom i razbijao po studiju.",
            "icon": "https://www.facebook.com/images/icons/post.gif",
            "actions": [
                {
                    "name": "Comment",
                    "link": "https://www.facebook.com/10213170117986015/posts/121751114397"
                },
                {
                    "name": "Like",
                    "link": "https://www.facebook.com/10213170117986015/posts/121751114397"
                },
                {
                    "name": "Share",
                    "link": "https://www.facebook.com/10213170117986015/posts/121751114397"
                }
            ],
            "privacy": {
                "value": "ALL_FRIENDS",
                "description": "Your friends",
                "friends": "",
                "allow": "",
                "deny": ""
            },
            "type": "video",
            "status_type": "shared_story",
            "created_time": "2009-08-25T14:21:14+0000",
            "updated_time": "2009-08-25T14:21:14+0000",
            "is_hidden": false,
            "subscribed": true,
            "is_expired": false
        },
        {
            "id": "10213170117986015_133134479088",
            "from": {
                "name": "Matevž Pearce",
                "id": "10213170117986015"
            },
            "message": "uau, kej tazga..",
            "actions": [
                {
                    "name": "Comment",
                    "link": "https://www.facebook.com/10213170117986015/posts/133134479088"
                },
                {
                    "name": "Like",
                    "link": "https://www.facebook.com/10213170117986015/posts/133134479088"
                },
                {
                    "name": "Share",
                    "link": "https://www.facebook.com/10213170117986015/posts/133134479088"
                }
            ],
            "privacy": {
                "value": "ALL_FRIENDS",
                "description": "Your friends",
                "friends": "",
                "allow": "",
                "deny": ""
            },
            "type": "status",
            "application": {
                "category": "Entertainment",
                "link": "https://apps.facebook.com/risanke-iajhh/",
                "name": "Risanke",
                "namespace": "risanke-iajhh",
                "id": "33427723424"
            },
            "created_time": "2009-08-21T22:20:07+0000",
            "updated_time": "2009-08-21T22:20:07+0000",
            "is_hidden": false,
            "subscribed": true,
            "is_expired": false
        },
        {
            "id": "10213170117986015_214188970192",
            "from": {
                "name": "Matevž Pearce",
                "id": "10213170117986015"
            },
            "message": "http://www.youtube.com/watch?v=2kj4Nq0jVE8",
            "picture": "https://external.xx.fbcdn.net/safe_image.php?d=AQDsw1eKXfnxOBNY&w=130&h=130&url=http%3A%2F%2Fi.ytimg.com%2Fvi%2F2kj4Nq0jVE8%2F2.jpg&cfs=1&_nc_hash=AQBKARUkahhWcuw-",
            "link": "http://www.youtube.com/watch?v=2kj4Nq0jVE8",
            "source": "https://www.youtube.com/embed/2kj4Nq0jVE8?autoplay=1",
            "name": "Prizma - Pogum",
            "caption": "youtube.com",
            "description": " ",
            "icon": "https://www.facebook.com/images/icons/post.gif",
            "actions": [
                {
                    "name": "Comment",
                    "link": "https://www.facebook.com/10213170117986015/posts/214188970192"
                },
                {
                    "name": "Like",
                    "link": "https://www.facebook.com/10213170117986015/posts/214188970192"
                },
                {
                    "name": "Share",
                    "link": "https://www.facebook.com/10213170117986015/posts/214188970192"
                }
            ],
            "privacy": {
                "value": "ALL_FRIENDS",
                "description": "Your friends",
                "friends": "",
                "allow": "",
                "deny": ""
            },
            "type": "video",
            "status_type": "shared_story",
            "created_time": "2009-05-22T12:44:10+0000",
            "updated_time": "2009-05-22T12:44:10+0000",
            "is_hidden": false,
            "subscribed": true,
            "is_expired": false
        },
        {
            "id": "10213170117986015_92706346061",
            "from": {
                "name": "Matevž Pearce",
                "id": "10213170117986015"
            },
            "message": "http://www.youtube.com/watch?v=Dh94YadocCg",
            "picture": "https://external.xx.fbcdn.net/safe_image.php?d=AQDa7uJL8_9mROgz&w=130&h=130&url=http%3A%2F%2Fi.ytimg.com%2Fvi%2FDh94YadocCg%2F2.jpg&cfs=1&_nc_hash=AQCP3unk2cKNN8Ea",
            "link": "http://www.youtube.com/watch?v=Dh94YadocCg",
            "name": "Bazar-Dober dan",
            "caption": "youtube.com",
            "description": "Stara slovenska pesem!",
            "icon": "https://www.facebook.com/images/icons/post.gif",
            "actions": [
                {
                    "name": "Comment",
                    "link": "https://www.facebook.com/10213170117986015/posts/92706346061"
                },
                {
                    "name": "Like",
                    "link": "https://www.facebook.com/10213170117986015/posts/92706346061"
                },
                {
                    "name": "Share",
                    "link": "https://www.facebook.com/10213170117986015/posts/92706346061"
                }
            ],
            "privacy": {
                "value": "ALL_FRIENDS",
                "description": "Your friends",
                "friends": "",
                "allow": "",
                "deny": ""
            },
            "type": "link",
            "status_type": "shared_story",
            "created_time": "2009-05-22T12:43:18+0000",
            "updated_time": "2009-05-22T12:43:18+0000",
            "is_hidden": false,
            "subscribed": true,
            "is_expired": false
        },
        {
            "id": "10213170117986015_83121994361",
            "from": {
                "name": "Matevž Pearce",
                "id": "10213170117986015"
            },
            "message": "http://www.youtube.com/watch?v=gTZcFH8oTBk",
            "picture": "https://external.xx.fbcdn.net/safe_image.php?d=AQBmtaZMGt8yzimS&w=130&h=130&url=http%3A%2F%2Fi.ytimg.com%2Fvi%2FgTZcFH8oTBk%2F2.jpg&cfs=1&_nc_hash=AQB5Keez1aBi3Bti",
            "link": "http://www.youtube.com/watch?v=gTZcFH8oTBk",
            "name": "Bazar - Si še jezna name",
            "caption": "youtube.com",
            "description": "Stari dobri slovenski pop iz osemdesetih.",
            "icon": "https://www.facebook.com/images/icons/post.gif",
            "actions": [
                {
                    "name": "Comment",
                    "link": "https://www.facebook.com/10213170117986015/posts/83121994361"
                },
                {
                    "name": "Like",
                    "link": "https://www.facebook.com/10213170117986015/posts/83121994361"
                },
                {
                    "name": "Share",
                    "link": "https://www.facebook.com/10213170117986015/posts/83121994361"
                }
            ],
            "privacy": {
                "value": "ALL_FRIENDS",
                "description": "Your friends",
                "friends": "",
                "allow": "",
                "deny": ""
            },
            "type": "link",
            "status_type": "shared_story",
            "created_time": "2009-05-22T12:43:10+0000",
            "updated_time": "2009-05-22T12:43:10+0000",
            "is_hidden": false,
            "subscribed": true,
            "is_expired": false
        },
        {
            "id": "10213170117986015_102390020843",
            "from": {
                "name": "Matevž Pearce",
                "id": "10213170117986015"
            },
            "message": "http://www.youtube.com/watch?v=oy0FJlbxPi8",
            "picture": "https://external.xx.fbcdn.net/safe_image.php?w=130&h=130&url=http%3A%2F%2Fi.ytimg.com%2Fvi%2Foy0FJlbxPi8%2F2.jpg&cfs=1&_nc_hash=AQAXfQqynyNSMMwg",
            "link": "http://www.youtube.com/watch?v=oy0FJlbxPi8",
            "source": "https://www.youtube.com/embed/oy0FJlbxPi8?autoplay=1",
            "name": "Bazar - Portorož 1905",
            "caption": "youtube.com",
            "description": " ",
            "icon": "https://www.facebook.com/images/icons/post.gif",
            "actions": [
                {
                    "name": "Comment",
                    "link": "https://www.facebook.com/10213170117986015/posts/102390020843"
                },
                {
                    "name": "Like",
                    "link": "https://www.facebook.com/10213170117986015/posts/102390020843"
                },
                {
                    "name": "Share",
                    "link": "https://www.facebook.com/10213170117986015/posts/102390020843"
                }
            ],
            "privacy": {
                "value": "ALL_FRIENDS",
                "description": "Your friends",
                "friends": "",
                "allow": "",
                "deny": ""
            },
            "type": "video",
            "status_type": "shared_story",
            "created_time": "2009-05-22T12:42:17+0000",
            "updated_time": "2009-05-22T12:42:17+0000",
            "is_hidden": false,
            "subscribed": true,
            "is_expired": false
        },
        {
            "id": "10213170117986015_91498879784",
            "from": {
                "name": "Matevž Pearce",
                "id": "10213170117986015"
            },
            "message": "http://www.youtube.com/watch?v=7EJy18ylf4o",
            "picture": "https://external.xx.fbcdn.net/safe_image.php?d=AQC7GpTBhmxpqJ3W&w=130&h=130&url=http%3A%2F%2Fi.ytimg.com%2Fvi%2F7EJy18ylf4o%2F2.jpg&cfs=1&_nc_hash=AQDWZyxA0rvOlyfH",
            "link": "http://www.youtube.com/watch?v=7EJy18ylf4o",
            "source": "https://www.youtube.com/embed/7EJy18ylf4o?autoplay=1",
            "name": "BAZAR - Poišči me",
            "caption": "youtube.com",
            "description": "Klasika!",
            "icon": "https://www.facebook.com/images/icons/post.gif",
            "actions": [
                {
                    "name": "Comment",
                    "link": "https://www.facebook.com/10213170117986015/posts/91498879784"
                },
                {
                    "name": "Like",
                    "link": "https://www.facebook.com/10213170117986015/posts/91498879784"
                },
                {
                    "name": "Share",
                    "link": "https://www.facebook.com/10213170117986015/posts/91498879784"
                }
            ],
            "privacy": {
                "value": "ALL_FRIENDS",
                "description": "Your friends",
                "friends": "",
                "allow": "",
                "deny": ""
            },
            "type": "video",
            "status_type": "shared_story",
            "created_time": "2009-05-22T12:42:12+0000",
            "updated_time": "2009-05-22T12:42:12+0000",
            "is_hidden": false,
            "subscribed": true,
            "is_expired": false
        },
        {
            "id": "10213170117986015_91087421819",
            "from": {
                "name": "Matevž Pearce",
                "id": "10213170117986015"
            },
            "message": "http://www.youtube.com/watch?v=Bum8QTyoUgU",
            "picture": "https://external.xx.fbcdn.net/safe_image.php?d=AQCM9smiEJwkx_xU&w=130&h=130&url=http%3A%2F%2Fi.ytimg.com%2Fvi%2FBum8QTyoUgU%2F2.jpg&cfs=1&_nc_hash=AQAHCqGQDKAnBNvE",
            "link": "http://www.youtube.com/watch?v=Bum8QTyoUgU",
            "source": "https://www.youtube.com/embed/Bum8QTyoUgU?autoplay=1",
            "name": "Chateau - Objemi me",
            "caption": "youtube.com",
            "description": "Original version of the song (not the video though)",
            "icon": "https://www.facebook.com/images/icons/post.gif",
            "actions": [
                {
                    "name": "Comment",
                    "link": "https://www.facebook.com/10213170117986015/posts/91087421819"
                },
                {
                    "name": "Like",
                    "link": "https://www.facebook.com/10213170117986015/posts/91087421819"
                },
                {
                    "name": "Share",
                    "link": "https://www.facebook.com/10213170117986015/posts/91087421819"
                }
            ],
            "privacy": {
                "value": "ALL_FRIENDS",
                "description": "Your friends",
                "friends": "",
                "allow": "",
                "deny": ""
            },
            "type": "video",
            "status_type": "shared_story",
            "created_time": "2009-05-22T12:28:34+0000",
            "updated_time": "2009-05-22T12:28:46+0000",
            "is_hidden": false,
            "subscribed": true,
            "is_expired": false,
            "comments": {
                "data": [
                    {
                        "created_time": "2009-05-22T12:28:46+0000",
                        "from": {
                            "name": "Matevž Pearce",
                            "id": "10213170117986015"
                        },
                        "message": "original!",
                        "can_remove": false,
                        "like_count": 0,
                        "user_likes": false,
                        "id": "91087421819_1991174"
                    }
                ],
                "paging": {
                    "cursors": {
                        "before": "WTI5dGJXVnVkRjlqZAFhKemIzSTZANVEF4TlRBM01qSTFOekUxTVRZANE1qQTZANVGs1TVRFM05BPT0ZD",
                        "after": "WTI5dGJXVnVkRjlqZAFhKemIzSTZANVEF4TlRBM01qSTFOekUxTVRZANE1qQTZANVGs1TVRFM05BPT0ZD"
                    }
                }
            }
        },
        {
            "id": "10213170117986015_108687937316",
            "from": {
                "name": "Matevž Pearce",
                "id": "10213170117986015"
            },
            "story": "Matevž Pearce shared a link.",
            "story_tags": {
                "0": [
                    {
                        "id": "10213170117986015",
                        "name": "Matevž Pearce",
                        "type": "user",
                        "offset": 0,
                        "length": 13
                    }
                ]
            },
            "picture": "https://external.xx.fbcdn.net/safe_image.php?d=AQAnmPXEUAGTS5qv&w=130&h=130&url=http%3A%2F%2Fi.ytimg.com%2Fvi%2FdJx9CLzR3Y0%2F2.jpg&cfs=1&_nc_hash=AQDJxB1DxjJrxV7s",
            "link": "http://www.youtube.com/watch?v=dJx9CLzR3Y0&feature=related",
            "source": "http://www.youtube.com/v/dJx9CLzR3Y0?version=3&autohide=1&autoplay=1",
            "name": "Chateau - Objemi me",
            "caption": "youtube.com",
            "description": "Videospot skupine Chateau za pesem Objemi me - v novi preobleki",
            "icon": "https://www.facebook.com/images/icons/post.gif",
            "actions": [
                {
                    "name": "Comment",
                    "link": "https://www.facebook.com/10213170117986015/posts/108687937316"
                },
                {
                    "name": "Like",
                    "link": "https://www.facebook.com/10213170117986015/posts/108687937316"
                },
                {
                    "name": "Share",
                    "link": "https://www.facebook.com/10213170117986015/posts/108687937316"
                }
            ],
            "privacy": {
                "value": "ALL_FRIENDS",
                "description": "Your friends",
                "friends": "",
                "allow": "",
                "deny": ""
            },
            "type": "video",
            "status_type": "shared_story",
            "created_time": "2009-05-19T08:06:06+0000",
            "updated_time": "2009-05-19T08:06:06+0000",
            "is_hidden": false,
            "subscribed": true,
            "is_expired": false,
            "comments": {
                "data": [
                    {
                        "created_time": "2009-05-21T19:33:55+0000",
                        "from": {
                            "name": "Neza Lipanje",
                            "id": "10204786060748773"
                        },
                        "message": "ma kaj je tu? :D",
                        "can_remove": false,
                        "like_count": 0,
                        "user_likes": false,
                        "id": "108687937316_1974780"
                    },
                    {
                        "created_time": "2009-05-22T12:23:47+0000",
                        "from": {
                            "name": "Matevž Pearce",
                            "id": "10213170117986015"
                        },
                        "message": "ne poznaš?",
                        "can_remove": false,
                        "like_count": 0,
                        "user_likes": false,
                        "id": "108687937316_1985985"
                    },
                    {
                        "created_time": "2009-05-22T12:24:06+0000",
                        "from": {
                            "name": "Matevž Pearce",
                            "id": "10213170117986015"
                        },
                        "message": "komad iz rane moje mladosti... in še čigave..",
                        "can_remove": false,
                        "like_count": 0,
                        "user_likes": false,
                        "id": "108687937316_1985989"
                    }
                ],
                "paging": {
                    "cursors": {
                        "before": "WTI5dGJXVnVkRjlqZAFhKemIzSTZANVEF4TlRBNU1qVTNPVFV3T0RJek1UYzZANVGszTkRjNE1BPT0ZD",
                        "after": "WTI5dGJXVnVkRjlqZAFhKemIzSTZANVEF4TlRBNU1qVTROVEEzTURjek1UYzZANVGs0TlRrNE9RPT0ZD"
                    }
                }
            }
        },
        {
            "id": "10213170117986015_57649150274",
            "from": {
                "name": "Matevž Pearce",
                "id": "10213170117986015"
            },
            "message": "took the \"Are you cool?\" quiz and the result is: Super-Duper Cool!!!",
            "actions": [
                {
                    "name": "Comment",
                    "link": "https://www.facebook.com/10213170117986015/posts/57649150274"
                },
                {
                    "name": "Like",
                    "link": "https://www.facebook.com/10213170117986015/posts/57649150274"
                },
                {
                    "name": "Share",
                    "link": "https://www.facebook.com/10213170117986015/posts/57649150274"
                }
            ],
            "privacy": {
                "value": "ALL_FRIENDS",
                "description": "Your friends",
                "friends": "",
                "allow": "",
                "deny": ""
            },
            "type": "status",
            "application": {
                "link": "http://http/quiz.crowdstar.com/",
                "name": "Are you cool?",
                "namespace": "qare-you-cool-hcffg",
                "id": "33290644343"
            },
            "created_time": "2009-03-17T16:14:02+0000",
            "updated_time": "2009-03-17T16:14:02+0000",
            "is_hidden": false,
            "subscribed": true,
            "is_expired": false
        },
        {
            "id": "10213170117986015_62468501260",
            "from": {
                "name": "Matevž Pearce",
                "id": "10213170117986015"
            },
            "message": "played the Know-It-All 'You know that 80s song ?' challenge!",
            "actions": [
                {
                    "name": "Comment",
                    "link": "https://www.facebook.com/10213170117986015/posts/62468501260"
                },
                {
                    "name": "Like",
                    "link": "https://www.facebook.com/10213170117986015/posts/62468501260"
                },
                {
                    "name": "Share",
                    "link": "https://www.facebook.com/10213170117986015/posts/62468501260"
                }
            ],
            "privacy": {
                "value": "ALL_FRIENDS",
                "description": "Your friends",
                "friends": "",
                "allow": "",
                "deny": ""
            },
            "type": "status",
            "application": {
                "link": "http://trivia.applatform.com/",
                "name": "You know that 80s song?",
                "namespace": "trv-you-know-t-ctvz",
                "id": "47843673806"
            },
            "created_time": "2009-03-17T16:01:59+0000",
            "updated_time": "2009-03-17T16:01:59+0000",
            "is_hidden": false,
            "subscribed": true,
            "is_expired": false
        },
        {
            "id": "10213170117986015_1129309271395",
            "from": {
                "name": "Matevž Pearce",
                "id": "10213170117986015"
            },
            "actions": [
                {
                    "name": "Comment",
                    "link": "https://www.facebook.com/10213170117986015/posts/1129309271395"
                },
                {
                    "name": "Like",
                    "link": "https://www.facebook.com/10213170117986015/posts/1129309271395"
                },
                {
                    "name": "Share",
                    "link": "https://www.facebook.com/10213170117986015/posts/1129309271395"
                }
            ],
            "privacy": {
                "value": "ALL_FRIENDS",
                "description": "Your friends",
                "friends": "",
                "allow": "",
                "deny": ""
            },
            "type": "status",
            "application": {
                "link": "http://trivia.applatform.com/",
                "name": "You know that 80s song?",
                "namespace": "trv-you-know-t-ctvz",
                "id": "47843673806"
            },
            "created_time": "2009-03-17T16:01:47+0000",
            "updated_time": "2009-03-17T16:01:47+0000",
            "is_hidden": false,
            "subscribed": true,
            "is_expired": false
        },
        {
            "id": "10213170117986015_1129307511351",
            "from": {
                "name": "Matevž Pearce",
                "id": "10213170117986015"
            },
            "actions": [
                {
                    "name": "Comment",
                    "link": "https://www.facebook.com/10213170117986015/posts/1129307511351"
                },
                {
                    "name": "Like",
                    "link": "https://www.facebook.com/10213170117986015/posts/1129307511351"
                },
                {
                    "name": "Share",
                    "link": "https://www.facebook.com/10213170117986015/posts/1129307511351"
                }
            ],
            "privacy": {
                "value": "ALL_FRIENDS",
                "description": "Your friends",
                "friends": "",
                "allow": "",
                "deny": ""
            },
            "type": "status",
            "application": {
                "category": "Education",
                "link": "http://http/quiz.crowdstar.com/",
                "name": "Kaj si bil v prejšnem življenju:)?",
                "namespace": "qkaj-si-bil-v-bggicd",
                "id": "134692395143"
            },
            "created_time": "2009-03-17T15:57:39+0000",
            "updated_time": "2009-03-17T15:57:39+0000",
            "is_hidden": false,
            "subscribed": true,
            "is_expired": false
        },
        {
            "id": "10213170117986015_131821965351",
            "from": {
                "name": "Matevž Pearce",
                "id": "10213170117986015"
            },
            "message": "lovi zmaja.",
            "actions": [
                {
                    "name": "Comment",
                    "link": "https://www.facebook.com/10213170117986015/posts/131821965351"
                },
                {
                    "name": "Like",
                    "link": "https://www.facebook.com/10213170117986015/posts/131821965351"
                },
                {
                    "name": "Share",
                    "link": "https://www.facebook.com/10213170117986015/posts/131821965351"
                }
            ],
            "privacy": {
                "value": "ALL_FRIENDS",
                "description": "Your friends",
                "friends": "",
                "allow": "",
                "deny": ""
            },
            "type": "status",
            "status_type": "mobile_status_update",
            "created_time": "2009-02-26T15:14:14+0000",
            "updated_time": "2009-02-26T15:14:14+0000",
            "is_hidden": false,
            "subscribed": true,
            "is_expired": false
        },
        {
            "id": "10213170117986015_1116191183451",
            "from": {
                "name": "Matevž Pearce",
                "id": "10213170117986015"
            },
            "actions": [
                {
                    "name": "Comment",
                    "link": "https://www.facebook.com/10213170117986015/posts/1116191183451"
                },
                {
                    "name": "Like",
                    "link": "https://www.facebook.com/10213170117986015/posts/1116191183451"
                },
                {
                    "name": "Share",
                    "link": "https://www.facebook.com/10213170117986015/posts/1116191183451"
                }
            ],
            "privacy": {
                "value": "ALL_FRIENDS",
                "description": "Your friends",
                "friends": "",
                "allow": "",
                "deny": ""
            },
            "type": "status",
            "application": {
                "link": "https://apps.facebook.com/dobra-stara-vr-ihcd/",
                "name": "Dobra stara vremena",
                "namespace": "dobra-stara-vr-ihcd",
                "id": "14585204253"
            },
            "created_time": "2009-02-20T11:22:05+0000",
            "updated_time": "2009-02-20T11:22:05+0000",
            "is_hidden": false,
            "subscribed": true,
            "is_expired": false
        },
        {
            "id": "10213170117986015_61520805882",
            "from": {
                "name": "Matevž Pearce",
                "id": "10213170117986015"
            },
            "message": "vi ste carji, hvala",
            "actions": [
                {
                    "name": "Comment",
                    "link": "https://www.facebook.com/10213170117986015/posts/61520805882"
                },
                {
                    "name": "Like",
                    "link": "https://www.facebook.com/10213170117986015/posts/61520805882"
                },
                {
                    "name": "Share",
                    "link": "https://www.facebook.com/10213170117986015/posts/61520805882"
                }
            ],
            "privacy": {
                "value": "ALL_FRIENDS",
                "description": "Your friends",
                "friends": "",
                "allow": "",
                "deny": ""
            },
            "type": "status",
            "status_type": "mobile_status_update",
            "created_time": "2009-01-12T22:01:29+0000",
            "updated_time": "2009-01-12T22:01:29+0000",
            "is_hidden": false,
            "subscribed": true,
            "is_expired": false
        },
        {
            "id": "10213170117986015_53410237663",
            "from": {
                "name": "Matevž Pearce",
                "id": "10213170117986015"
            },
            "message": "hvala vsim!",
            "actions": [
                {
                    "name": "Comment",
                    "link": "https://www.facebook.com/10213170117986015/posts/53410237663"
                },
                {
                    "name": "Like",
                    "link": "https://www.facebook.com/10213170117986015/posts/53410237663"
                },
                {
                    "name": "Share",
                    "link": "https://www.facebook.com/10213170117986015/posts/53410237663"
                }
            ],
            "privacy": {
                "value": "ALL_FRIENDS",
                "description": "Your friends",
                "friends": "",
                "allow": "",
                "deny": ""
            },
            "type": "status",
            "status_type": "mobile_status_update",
            "created_time": "2009-01-02T16:12:17+0000",
            "updated_time": "2009-01-02T16:12:17+0000",
            "is_hidden": false,
            "subscribed": true,
            "is_expired": false
        },
        {
            "id": "10213170117986015_10204648505551030",
            "from": {
                "name": "Matevž Pearce",
                "id": "10213170117986015"
            },
            "story": "Matevž Pearce added a life event from January 2, 1983: Born on January 2, 1983.",
            "story_tags": {
                "0": [
                    {
                        "id": "10213170117986015",
                        "name": "Matevž Pearce",
                        "type": "user",
                        "offset": 0,
                        "length": 13
                    }
                ]
            },
            "link": "https://www.facebook.com/10213170117986015/posts/10204648505551030",
            "name": "Born on January 2, 1983",
            "caption": "Born on January 2, 1983",
            "icon": "https://www.facebook.com/images/icons/post.gif",
            "actions": [
                {
                    "name": "Comment",
                    "link": "https://www.facebook.com/10213170117986015/posts/10204648505551030"
                },
                {
                    "name": "Like",
                    "link": "https://www.facebook.com/10213170117986015/posts/10204648505551030"
                }
            ],
            "privacy": {
                "value": "SELF",
                "description": "Only me",
                "friends": "",
                "allow": "",
                "deny": ""
            },
            "type": "link",
            "object_id": "10204648505551030",
            "created_time": "1983-01-02T08:00:00+0000",
            "updated_time": "1983-01-02T08:00:00+0000",
            "backdated_time": "1983-01-02T08:00:00+0000",
            "is_hidden": false,
            "subscribed": true,
            "is_expired": false
        }
    ],
    "paging": {
        "previous": "https://graph.facebook.com/v2.3/10213170117986015/posts?limit=100&format=json&since=1357197770&access_token=EAACEdEose0cBAKrpbkgpghT6Ej94Nrm972DjU3YRsdHonrn7UaBUZCkCYUODyztmyuHVM4SjQP9iAukWNZAEVtSH6QPGWGjARG5jocBH9PaqWR4ZCCNvlXvEM00ZAf21ZByBxWlK004dc586TUP4VL7ZCV7sad7aaEQpoGxTqaLrygKSWWMPX0Ux99IIZA4Q2wZD&__paging_token=enc_AdBj9RbIWUoYTo4fpgKeikrSOVwRqwEgXLKTQj0KZCZCWoKnZB5yRzm0SBozWKSe9iIL2JiJXxTsnNKl8GI273PZCD0t&__previous=1",
        "next": "https://graph.facebook.com/v2.3/10213170117986015/posts?limit=100&format=json&access_token=EAACEdEose0cBAKrpbkgpghT6Ej94Nrm972DjU3YRsdHonrn7UaBUZCkCYUODyztmyuHVM4SjQP9iAukWNZAEVtSH6QPGWGjARG5jocBH9PaqWR4ZCCNvlXvEM00ZAf21ZByBxWlK004dc586TUP4VL7ZCV7sad7aaEQpoGxTqaLrygKSWWMPX0Ux99IIZA4Q2wZD&until=410342400&__paging_token=enc_AdBAZABy5PqFKUv64vAm7MjI3bNUZCdaBk2bXWRxxR0qGZBYJ2Yf8ZBWJMTMU6ZCe8xgmaslEfeG12eahOtaQXvnTD6e2"
    }
}